data/1.5.csv

#Digilent WaveForms Oscilloscope Acquisition
#Device Name: Discovery2
#Serial Number: SN:210321B0FB35
#Date Time: 2023-10-04 23:25:26.508
#Sample rate: 1.5873e+06Hz
#Samples: 8192
#Trigger: Source: Channel 1 Type: Edge Condition: Rising Level: -4.59479 V Hyst.: Auto HoldOff: 100 ns
#Channel 1: Range: 1 V/div Offset: 0 V Attenuation: 1 X Sample Mode: Average
#Channel 2: Range: 500 mV/div Offset: 0 V Attenuation: 1 X Sample Mode: Average
#Wavegen Channel 1: Running
#Mode: Simple
#Type: Triangle
#Frequency: 1 kHz
#Period: 1 ms
#Amplitude: 2.5 V
#Offset: 2.5 V
#Symmetry: 50 %
#Phase: 0 бу
#Wavegen Channel 2: Running
#Mode: Simple
#Type: DC
#Offset: 1.5 V

Time (s),Channel 1 (V),Channel 2 (V)
0.0408190159042218,0.006722326292365234,1.499653334341227
0.0408196459042218,-0.0006491365386361867,1.498982667734817
0.0408202759042218,-0.0006491365386529476,1.498982667734815
0.04082090590422181,0.006722326292331712,1.498982667734818
0.04082153590422181,0.006722326292331712,1.499988667644423
0.0408221659042218,0.006722326292331712,1.49898266773482
0.0408227959042218,0.006722326292331712,1.499318001038019
0.04082342590422181,0.006722326292331712,1.501665334160447
0.04082405590422181,0.006722326292311599,1.498312001128409
0.04082468590422181,-0.0006491365386328347,1.498982667734817
0.0408253159042218,0.003036594876825974,1.499318001038018
0.0408259459042218,0.00672232629232836,1.49931800103802
0.04082657590422181,0.01040805770781399,1.499318001038019
0.04082720590422181,0.003036594876839382,1.498647334431612
0.0408278359042218,0.003036594876839382,1.498647334431612
0.0408284659042218,0.006722326292321655,1.499318001038018
0.0408290959042218,0.003036594876841059,1.498982667734816
0.04082972590422181,0.003036594876839382,1.49931800103802
0.04083035590422181,0.003036594876839382,1.49931800103802
0.0408309859042218,0.003036594876839382,1.49931800103802
0.0408316159042218,-0.0006491365386445671,1.498982667734816
0.0408322459042218,0.006722326292331712,1.498647334431612
0.04083287590422181,0.01040805770780728,1.49931800103802
0.04083350590422181,0.003036594876822622,1.499318001038018
0.0408341359042218,-0.0006491365386378629,1.498982667734817
0.0408347659042218,0.006722326292318304,1.498982667734815
0.04083539590422181,0.01040805770782069,1.498647334431612
0.04083602590422181,0.003036594876815917,1.498982667734819
0.04083665590422181,-0.004334867954125164,1.499988667644428
0.0408372859042218,-0.0006491365386646799,1.499988667644428
0.0408379159042218,0.006722326292325008,1.499988667644428
0.04083854590422181,0.01040805770781901,1.500324000947632
0.04083917590422181,0.006722326292304895,1.499988667644425
0.0408398059042218,-0.0006491365386160743,1.499318001038023
0.0408404359042218,0.003036594876829326,1.500659334250832
0.0408410659042218,-0.0006491365386512714,1.49931800103802
0.04084169590422181,-0.004334867954131869,1.500324000947633
0.04084232590422181,0.003036594876824298,1.500659334250833
0.0408429559042218,-0.0006491365386361867,1.499988667644431
0.0408435859042218,-0.0006491365386529476,1.499318001038021
0.0408442159042218,-0.0006491365386529476,1.49931800103802
0.04084484590422181,0.003036594876839382,1.499318001038021
0.04084547590422181,0.003036594876839382,1.499988667644429
0.0408461059042218,0.003036594876839382,1.500324000947631
0.0408467359042218,0.006722326292325009,1.499653334341225
0.04084736590422181,0.00303659487683603,1.498982667734816
0.04084799590422181,-0.0006491365386646802,1.499318001038021
0.04084862590422181,-0.004334867954145278,1.499653334341227
0.0408492559042218,-0.004334867954145278,1.50032400094763
0.0408498859042218,-0.0006491365386562999,1.499653334341224
0.04085051590422181,0.003036594876834354,1.49931800103802
0.04085114590422181,-0.0006491365386529476,1.499653334341224
0.0408517759042218,-0.0006491365386529476,1.499653334341224
0.0408524059042218,-0.0006491365386529476,1.498982667734817
0.0408530359042218,-0.0006491365386529476,1.499318001038019
0.04085366590422181,0.003036594876839382,1.498647334431612
0.04085429590422181,0.003036594876824298,1.498982667734815
0.0408549259042218,-0.0006491365386361867,1.498982667734815
0.0408555559042218,-0.004334867954136897,1.498982667734815
0.0408561859042218,-0.0006491365386529476,1.49931800103802
0.04085681590422181,-0.0006491365386428912,1.499653334341222
0.04085744590422181,0.003036594876839382,1.498982667734817
0.0408580759042218,0.003036594876839382,1.499318001038018
0.0408587059042218,-0.004334867954135221,1.49931800103802
0.04085933590422181,-0.004334867954145278,1.498982667734815
0.04085996590422181,-0.004334867954133545,1.498982667734814
0.04086059590422181,-0.0006491365386529476,1.498647334431615
0.0408612259042218,-0.0006491365386529476,1.499318001038017
0.0408618559042218,-0.0006491365386529476,1.500324000947631
0.04086248590422181,0.01040805770782404,1.499653334341222
0.04086311590422181,0.01040805770778382,1.498647334431614
0.0408637459042218,-0.0006491365385976385,1.499318001038016
0.0408643759042218,-0.0006491365386529476,1.49931800103802
0.0408650059042218,0.003036594876837706,1.499653334341223
0.04086563590422181,0.003036594876852791,1.499653334341222
0.04086626590422181,0.0104080577077637,1.498647334431616
0.0408668959042218,-0.004334867954078234,1.499653334341219
0.0408675259042218,-0.008020599369629228,1.49931800103802
0.0408681559042218,-0.004334867954141925,1.499318001038019
0.04086878590422181,0.003036594876839382,1.498982667734816
0.04086941590422181,0.003036594876802509,1.49931800103802
0.0408700459042218,-0.004334867954118461,1.49931800103802
0.0408706759042218,-0.004334867954145278,1.49931800103802
0.04087130590422181,-0.004334867954141925,1.499653334341224
0.04087193590422181,-0.0006491365386529476,1.500324000947632
0.04087256590422181,-0.0006491365386529476,1.500324000947625
0.0408731959042218,-0.0006491365386529476,1.49898266773482
0.0408738259042218,0.00303659487683603,1.501330000857242
0.04087445590422181,-0.000649136538663004,1.499653334341223
0.04087508590422181,-0.008020599369637609,1.498982667734815
0.0408757159042218,-0.008020599369637609,1.498982667734815
0.0408763459042218,-0.008020599369637609,1.498982667734815
0.0408769759042218,-0.004334867954146953,1.498982667734815
0.04087760590422181,-0.0006491365386529476,1.499318001038019
0.04087823590422181,-0.0006491365386361868,1.498982667734815
0.0408788659042218,0.003036594876822622,1.498982667734815
0.0408794959042218,-0.004334867954131869,1.499318001038019
0.0408801259042218,-0.0006491365386546236,1.49931800103802
0.04088075590422181,-0.004334867954145278,1.499653334341223
0.04088138590422181,-0.004334867954145278,1.499318001038021
0.0408820159042218,-0.004334867954145278,1.499653334341223
0.0408826459042218,0.006722326292316628,1.499988667644427
0.04088327590422181,0.006722326292321656,1.499988667644427
0.04088390590422181,-0.004334867954145278,1.49931800103802
0.04088453590422181,-0.004334867954125164,1.49931800103802
0.0408851659042218,-0.0006491365386646799,1.49931800103802
0.0408857959042218,-0.004334867954141925,1.49931800103802
0.04088642590422181,-0.004334867954145278,1.49931800103802
0.04088705590422181,-0.004334867954145278,1.499988667644428
0.0408876859042218,-0.004334867954145278,1.499988667644428
0.0408883159042218,-0.0006491365386630042,1.500324000947631
0.0408889459042218,0.003036594876837706,1.499653334341224
0.04088957590422181,-0.0006491365386361868,1.499653334341222
0.04089020590422181,0.006722326292314952,1.498982667734814
0.0408908359042218,0.003036594876854467,1.498647334431613
0.0408914659042218,-0.0006491365386462433,1.498312001128408
0.0408920959042218,0.003036594876837706,1.500659334250836
0.04089272590422181,-0.0006491365386529476,1.500659334250835
0.04089335590422181,-0.0006491365385607634,1.500324000947627
0.0408939859042218,0.01777952053874166,1.499318001038023
0.0408946159042218,0.03252244620075791,1.498982667734816
0.04089524590422181,0.02883671478526893,1.49931800103802
0.04089587590422181,0.01040805770783577,1.499318001038021
0.04089650590422181,0.0140937891233566,1.499653334341222
0.0408971359042218,0.02146525195427757,1.499318001038021
0.0408977659042218,0.01409378912332308,1.498982667734816
0.04089839590422181,0.0104080577078341,1.49931800103802
0.04089902590422181,0.0177795205388087,1.499653334341223
0.0408996559042218,0.0177795205388087,1.499318001038021
0.0409002859042218,0.02146525195429097,1.498982667734816
0.0409009159042218,0.02146525195430103,1.49931800103802
0.04090154590422181,0.01777952053880032,1.499318001038019
0.04090217590422181,0.01409378912333313,1.498982667734817
0.0409028059042218,0.01777952053879362,1.499318001038018
0.0409034359042218,0.02515098336977995,1.498982667734816
0.0409040659042218,0.02146525195429936,1.498647334431612
0.04090469590422181,0.0177795205388087,1.49931800103802
0.04090532590422181,0.0177795205388087,1.499653334341222
0.0409059559042218,0.0177795205388087,1.499318001038021
0.0409065859042218,0.0177795205388087,1.498982667734816
0.04090721590422181,0.02515098336979336,1.498982667734815
0.04090784590422181,0.02515098336978163,1.498982667734815
0.04090847590422181,0.02146525195426081,1.498982667734815
0.0409091059042218,0.01409378912333984,1.498982667734815
0.0409097359042218,0.01409378912331637,1.497976667825204
0.04091036590422181,0.02146525195430103,1.499988667644427
0.04091099590422181,0.02146525195427086,1.499653334341224
0.0409116259042218,0.0140937891233499,1.499653334341224
0.0409122559042218,0.02146525195428427,1.49931800103802
0.0409128859042218,0.02146525195430103,1.499988667644428
0.04091351590422181,0.0251509833697766,1.499318001038019
0.04091414590422181,0.01777952053882546,1.498982667734817
0.0409147759042218,0.02146525195428595,1.499318001038018
0.0409154059042218,0.01777952053881541,1.499988667644427
0.0409160359042218,0.0177795205388087,1.49931800103802
0.04091666590422181,0.0177795205388087,1.499653334341225
0.04091729590422181,0.01777952053879027,1.500324000947629
0.0409179259042218,0.01409378912332978,1.499653334341226
0.0409185559042218,0.01777952053880368,1.499653334341224
0.04091918590422181,0.02515098336979336,1.499988667644428
0.04091981590422181,0.02515098336979336,1.499653334341224
0.04092044590422181,0.02515098336974978,1.49965333434122
0.0409210759042218,0.01777952053883217,1.498982667734818
0.0409217059042218,0.0177795205388087,1.498312001128408
0.04092233590422181,0.01409378912331637,1.498647334431613
0.04092296590422181,0.01409378912334654,1.499653334341224
0.0409235959042218,0.02146525195426751,1.499653334341224
0.0409242259042218,0.02146525195430103,1.498982667734817
0.0409248559042218,0.0177795205388087,1.498982667734815
0.04092548590422181,0.0177795205388087,1.498982667734815
0.04092611590422181,0.0177795205388087,1.49898266773482
0.0409267459042218,0.0177795205388087,1.499988667644424
0.0409273759042218,0.01409378912332308,1.499988667644428
0.04092800590422181,0.01409378912331805,1.497976667825204
0.04092863590422181,0.01777952053881876,1.499988667644422
0.0409292659042218,0.02146525195427924,1.497976667825215
0.0409298959042218,0.01777952053882211,1.497976667825203
0.0409305259042218,0.02883671478527061,1.498982667734814
0.04093115590422181,0.02515098336978666,1.499318001038021
0.04093178590422181,0.01777952053878188,1.500659334250832
0.04093241590422181,0.01040805770782404,1.499653334341222
0.0409330459042218,0.01040805770782404,1.49931800103802
0.0409336759042218,0.021465251954296,1.498982667734816
0.04093430590422181,0.02515098336979336,1.49931800103802
0.04093493590422181,0.02515098336979336,1.499318001038021
0.0409355659042218,0.02515098336979336,1.499653334341222
0.0409361959042218,0.02515098336979336,1.499653334341224
0.0409368259042218,0.02146525195430103,1.49931800103802
0.04093745590422181,0.0177795205388087,1.499318001038018
0.04093808590422181,0.01777952053884222,1.498647334431613
0.0409387159042218,0.02515098336976319,1.498982667734814
0.0409393459042218,0.02883671478527899,1.50032400094763
0.04093997590422181,0.02146525195429768,1.500324000947631
0.04094060590422181,0.01409378912331637,1.498982667734818
0.0409412359042218,0.01409378912331637,1.499988667644422
0.0409418659042218,0.01409378912331637,1.499988667644428
0.0409424959042218,0.01777952053880368,1.49931800103802
0.04094312590422181,0.02883671478527564,1.499653334341224
0.04094375590422181,0.02146525195428762,1.499988667644427
0.04094438590422181,0.01777952053883049,1.499653334341222
0.0409450159042218,0.02146525195429097,1.49931800103802
0.0409456459042218,0.01777952053881038,1.498982667734816
0.04094627590422181,0.02515098336980007,1.498982667734816
0.04094690590422181,0.02883671478524044,1.49931800103802
0.0409475359042218,0.01777952053885899,1.49931800103802
0.0409481659042218,0.0104080577078408,1.49931800103802
0.0409487959042218,0.01409378912331637,1.498982667734815
0.04094942590422181,0.01777952053880032,1.498312001128407
0.04095005590422181,0.01409378912333313,1.498312001128411
0.0409506859042218,0.01777952053879362,1.498982667734813
0.0409513159042218,0.02146525195429433,1.499318001038019
0.04095194590422181,0.02515098336979169,1.499653334341223
0.04095257590422181,0.0214652519542893,1.498982667734817
0.0409532059042218,0.01777952053883049,1.499318001038018
0.0409538359042218,0.0177795205388087,1.498982667734817
0.0409544659042218,0.02146525195429768,1.498982667734815
0.04095509590422181,0.02146525195430606,1.499653334341223
0.04095572590422181,0.02515098336977995,1.499318001038021
0.0409563559042218,0.02146525195431947,1.499653334341222
0.0409569859042218,0.02515098336978331,1.50032400094763
0.0409576159042218,0.02515098336979336,1.49931800103802
0.04095824590422181,0.02146525195430103,1.499988667644426
0.04095887590422181,0.02146525195431612,1.498982667734818
0.0409595059042218,0.0251509833697766,1.499653334341221
0.0409601359042218,0.02515098336979336,1.49931800103802
0.0409607659042218,0.02515098336979336,1.499653334341224
0.04096139590422181,0.01777952053881708,1.49931800103802
0.04096202590422181,0.02146525195431779,1.499318001038018
0.0409626559042218,0.02515098336977828,1.498982667734817
0.0409632859042218,0.02883671478527899,1.499653334341223
0.04096391590422181,0.02515098336979336,1.498982667734815
0.04096454590422181,0.02515098336978163,1.49797666782521
0.0409651759042218,0.02146525195432114,1.499988667644417
0.0409658059042218,0.01409378912333984,1.498982667734819
0.0409664359042218,0.02146525195429433,1.498982667734815
0.04096706590422181,0.02515098336978834,1.498647334431612
0.04096769590422181,0.02146525195430103,1.49931800103802
0.0409683259042218,0.02146525195430103,1.49931800103802
0.0409689559042218,0.02515098336978331,1.498647334431613
0.0409695859042218,0.02515098336979336,1.499318001038019
0.04097021590422181,0.02883671478528569,1.499653334341223
0.04097084590422181,0.02883671478525552,1.498982667734817
0.0409714759042218,0.02146525195433455,1.499318001038018
0.0409721059042218,0.01777952053881708,1.499653334341223
0.0409727359042218,0.02146525195430103,1.499653334341224
0.04097336590422181,0.02515098336979336,1.50032400094763
0.04097399590422181,0.02515098336979336,1.49931800103802
0.0409746259042218,0.02515098336979336,1.49931800103802
0.0409752559042218,0.02883671478528067,1.49931800103802
0.04097588590422181,0.02883671478528234,1.498982667734815
0.04097651590422181,0.0251509833697699,1.498982667734815
0.0409771459042218,0.01777952053884893,1.498982667734815
0.0409777759042218,0.01409378912332811,1.499318001038018
0.0409784059042218,0.02883671478527228,1.499653334341223
0.04097903590422181,0.03252244620076797,1.498982667734816
0.04097966590422181,0.02515098336977995,1.499318001038021
0.0409802959042218,0.02146525195431947,1.499653334341222
0.0409809259042218,0.02515098336978331,1.49931800103802
0.0409815559042218,0.02146525195430271,1.500324000947632
0.04098218590422181,0.02146525195430773,1.499988667644427
0.04098281590422181,0.02515098336979336,1.499318001038021
0.0409834459042218,0.02515098336979336,1.499653334341222
0.0409840759042218,0.02515098336979336,1.49931800103802
0.0409847059042218,0.02146525195430103,1.498982667734815
0.04098533590422181,0.01777952053881876,1.499653334341225
0.04098596590422181,0.02146525195433791,1.499988667644426
0.0409865959042218,0.02883671478525888,1.499653334341225
0.0409872259042218,0.02883671478528569,1.49931800103802
0.04098785590422181,0.02146525195430103,1.498647334431611
0.04098848590422181,0.0214652519542893,1.498312001128407
0.0409891159042218,0.01777952053882881,1.498312001128407
0.0409897459042218,0.0214652519542893,1.498312001128407
0.0409903759042218,0.02883671478527899,1.498982667734815
0.04099100590422181,0.02883671478528067,1.498982667734816
0.04099163590422181,0.02515098336979336,1.499318001038018
0.0409922659042218,0.02515098336979336,1.498982667734817
0.0409928959042218,0.02146525195431109,1.498312001128409
0.0409935259042218,0.01777952053881038,1.498647334431611
0.04099415590422181,0.02515098336980007,1.498312001128408
0.04099478590422181,0.02883671478527061,1.498647334431612
0.0409954159042218,0.02515098336981013,1.498647334431612
0.0409960459042218,0.02146525195430941,1.499318001038018
0.0409966759042218,0.02146525195430103,1.498982667734816
0.04099730590422181,0.02146525195431109,1.499653334341222
0.04099793590422181,0.02515098336979336,1.49898266773481
0.0409985659042218,0.02515098336979336,1.497976667825207
0.0409991959042218,0.02515098336979336,1.498647334431611
0.04099982590422181,0.02883671478528904,1.498647334431612
0.04100045590422181,0.03252244620076629,1.498647334431617
0.0410010859042218,0.02883671478530581,1.500324000947623
0.0410017159042218,0.0214652519543245,1.498647334431617
0.0410023459042218,0.02146525195430103,1.498312001128408
0.04100297590422181,0.02883671478528569,1.498647334431612
0.04100360590422181,0.02883671478527228,1.498982667734815
0.0410042359042218,0.0251509833698118,1.498982667734815
0.0410048659042218,0.02515098336979336,1.498982667734815
0.0410054959042218,0.02515098336979336,1.498982667734815
0.04100612590422181,0.02515098336979336,1.498647334431612
0.04100675590422181,0.0251509833697766,1.498982667734815
0.0410073859042218,0.02146525195431779,1.498982667734815
0.0410080159042218,0.02146525195430103,1.498647334431612
0.0410086459042218,0.02515098336979336,1.498647334431612
0.04100927590422181,0.02515098336980342,1.498647334431611
0.04100990590422181,0.02883671478528569,1.498312001128407
0.0410105359042218,0.02883671478528569,1.498312001128407
0.0410111659042218,0.02515098336979839,1.497976667825204
0.04101179590422181,0.02883671478528569,1.498312001128407
0.04101242590422181,0.02883671478527396,1.498312001128406
0.0410130559042218,0.02515098336981348,1.497976667825205
0.0410136859042218,0.02883671478527396,1.498647334431609
0.0410143159042218,0.03252244620077467,1.499318001038019
0.04101494590422181,0.0362081776162603,1.49931800103802
0.04101557590422181,0.02883671478527228,1.499653334341224
0.0410162059042218,0.0251509833698118,1.499653334341224
0.0410168359042218,0.02515098336979336,1.49931800103802
0.0410174659042218,0.02883671478528569,1.498982667734815
0.04101809590422181,0.03252244620076964,1.499318001038021
0.04101872590422181,0.02883671478530245,1.499988667644422
0.0410193559042218,0.03252244620076294,1.498647334431617
0.0410199859042218,0.02515098336980677,1.498982667734815
0.0410206159042218,0.02146525195430271,1.49931800103802
0.04102124590422181,0.02515098336978331,1.49931800103802
0.04102187590422181,0.02146525195430103,1.499318001038018
0.0410225059042218,0.02146525195430103,1.498982667734817
0.0410231359042218,0.01777952053881373,1.499318001038019
0.04102376590422181,0.02515098336979672,1.498982667734815
0.04102439590422181,0.02883671478527396,1.49831200112841
0.0410250259042218,0.02515098336981348,1.498982667734812
0.0410256559042218,0.02883671478527396,1.499988667644425
0.0410262859042218,0.03252244620077467,1.499988667644428
0.04102691590422181,0.02883671478528569,1.498982667734815
0.04102754590422181,0.02883671478528569,1.498982667734817
0.0410281759042218,0.02883671478528569,1.499318001038018
