data/1.6.csv

#Digilent WaveForms Oscilloscope Acquisition
#Device Name: Discovery2
#Serial Number: SN:210321B0FB35
#Date Time: 2023-10-04 23:24:36.152
#Sample rate: 1.5873e+06Hz
#Samples: 8192
#Trigger: Source: Channel 1 Type: Edge Condition: Rising Level: -4.59479 V Hyst.: Auto HoldOff: 100 ns
#Channel 1: Range: 1 V/div Offset: 0 V Attenuation: 1 X Sample Mode: Average
#Channel 2: Range: 500 mV/div Offset: 0 V Attenuation: 1 X Sample Mode: Average
#Wavegen Channel 1: Running
#Mode: Simple
#Type: Triangle
#Frequency: 1 kHz
#Period: 1 ms
#Amplitude: 2.5 V
#Offset: 2.5 V
#Symmetry: 50 %
#Phase: 0 бу
#Wavegen Channel 2: Running
#Mode: Simple
#Type: DC
#Offset: 1.6 V

Time (s),Channel 1 (V),Channel 2 (V)
0.0408190159042218,0.05463683469371525,1.599917991999241
0.0408196459042218,0.05832256610921595,1.600253325302446
0.0408202759042218,0.05832256610922433,1.599582658696038
0.04082090590422181,0.06200829752470828,1.599247325392835
0.04082153590422181,0.05832256610920757,1.59958265869604
0.0408221659042218,0.05463683469374709,1.599917991999241
0.0408227959042218,0.05832256610921763,1.599247325392835
0.04082342590422181,0.05832256610922433,1.598576658786427
0.04082405590422181,0.05832256610922433,1.599917991999241
0.04082468590422181,0.05832256610922433,1.599247325392836
0.0408253159042218,0.05832256610922433,1.599582658696037
0.0408259459042218,0.05463683469373536,1.599917991999242
0.04082657590422181,0.05832256610922936,1.599582658696038
0.04082720590422181,0.06200829752471666,1.599582658696041
0.0408278359042218,0.06200829752471666,1.600253325302443
0.0408284659042218,0.06200829752471666,1.59958265869604
0.0408290959042218,0.05832256610922601,1.599582658696038
0.04082972590422181,0.05832256610921763,1.599247325392833
0.04083035590422181,0.05463683469376217,1.598576658786427
0.0408309859042218,0.06200829752468314,1.598911992089629
0.0408316159042218,0.06200829752471666,1.598241325483224
0.0408322459042218,0.054636834693732,1.598576658786426
0.04083287590422181,0.05832256610921595,1.598911992089631
0.04083350590422181,0.054636834693732,1.599247325392833
0.0408341359042218,0.054636834693732,1.598911992089632
0.0408347659042218,0.05832256610921763,1.599582658696037
0.04083539590422181,0.05832256610922433,1.599582658696038
0.04083602590422181,0.05832256610922433,1.599247325392833
0.04083665590422181,0.05832256610924445,1.598911992089634
0.0408372859042218,0.06200829752470493,1.599582658696036
0.0408379159042218,0.05463683469373871,1.598911992089631
0.04083854590422181,0.05463683469374206,1.599582658696038
0.04083917590422181,0.06200829752470326,1.599582658696038
0.0408398059042218,0.05832256610924277,1.599582658696038
0.0408404359042218,0.06200829752470661,1.599582658696038
0.0408410659042218,0.05463683469373536,1.599582658696038
0.04084169590422181,0.05832256610922433,1.599917991999242
0.04084232590422181,0.05832256610923942,1.599582658696036
0.0408429559042218,0.0620082975246999,1.598911992089633
0.0408435859042218,0.06200829752471666,1.59991799199924
0.0408442159042218,0.06200829752471666,1.599917991999242
0.04084484590422181,0.054636834693732,1.599917991999241
0.04084547590422181,0.054636834693732,1.599247325392836
0.0408461059042218,0.054636834693732,1.599582658696037
0.0408467359042218,0.054636834693732,1.599247325392835
0.04084736590422181,0.05832256610922098,1.599582658696039
0.04084799590422181,0.054636834693732,1.600253325302444
0.04084862590422181,0.05463683469377223,1.599582658696035
0.0408492559042218,0.0620082975246932,1.598911992089632
0.0408498859042218,0.06200829752471666,1.600253325302445
0.04085051590422181,0.05832256610922936,1.599917991999242
0.04085114590422181,0.06200829752471666,1.599917991999242
0.0408517759042218,0.06200829752471666,1.599917991999242
0.0408524059042218,0.06200829752471666,1.600588658605649
0.0408530359042218,0.05832256610922601,1.600253325302447
0.04085366590422181,0.05463683469373871,1.599582658696039
0.04085429590422181,0.0583225661092545,1.599917991999238
0.0408549259042218,0.06569402894017548,1.598911992089635
0.0408555559042218,0.05832256610924109,1.599247325392833
0.0408561859042218,0.05832256610922433,1.599247325392834
0.04085681590422181,0.05463683469374206,1.598911992089629
0.04085744590422181,0.05832256610922433,1.598576658786424
0.0408580759042218,0.05832256610922433,1.598241325483223
0.0408587059042218,0.06200829752471163,1.597905992180018
0.04085933590422181,0.06200829752471331,1.598911992089631
0.04085996590422181,0.05832256610920086,1.599917991999243
0.04086059590422181,0.05095110327830001,1.600253325302443
0.0408612259042218,0.06200829752468147,1.59958265869604
0.0408618559042218,0.05832256610922768,1.599582658696038
0.04086248590422181,0.06200829752472672,1.599582658696039
0.04086311590422181,0.0693797603556611,1.599917991999239
0.0408637459042218,0.05832256610927964,1.598911992089635
0.0408643759042218,0.05832256610922433,1.59991799199924
0.0408650059042218,0.06569402894020564,1.598576658786427
0.04086563590422181,0.05832256610923103,1.599247325392835
0.04086626590422181,0.06200829752474683,1.599917991999242
0.0408668959042218,0.06937976035566781,1.599917991999242
0.0408675259042218,0.06200829752473343,1.598911992089632
0.0408681559042218,0.05832256610922768,1.599917991999242
0.04086878590422181,0.06569402894019893,1.599582658696037
0.04086941590422181,0.06200829752469823,1.599247325392836
0.0408700459042218,0.05832256610923774,1.599582658696037
0.0408706759042218,0.05832256610922433,1.598911992089631
0.04087130590422181,0.06200829752471331,1.599582658696038
0.04087193590422181,0.05832256610922433,1.599917991999243
0.04087256590422181,0.05832256610924445,1.600253325302448
0.0408731959042218,0.06200829752470493,1.600588658605649
0.0408738259042218,0.06200829752471666,1.599917991999243
0.04087445590422181,0.05832256610922433,1.599917991999241
0.04087508590422181,0.05832256610921092,1.599247325392833
0.0408757159042218,0.05463683469375044,1.598911992089632
0.0408763459042218,0.054636834693732,1.598576658786427
0.0408769759042218,0.05832256610922265,1.598576658786426
0.04087760590422181,0.06200829752471666,1.599247325392835
0.04087823590422181,0.06200829752473342,1.599582658696037
0.0408788659042218,0.06569402894019223,1.599247325392836
0.0408794959042218,0.065694028940209,1.598576658786427
0.0408801259042218,0.06569402894020564,1.59891199208963
0.04088075590422181,0.05832256610921428,1.598576658786427
0.04088138590422181,0.05463683469375044,1.598911992089632
0.0408820159042218,0.05832256610921092,1.599247325392833
0.0408826459042218,0.06200829752471163,1.599247325392834
0.04088327590422181,0.06200829752472337,1.598576658786426
0.04088390590422181,0.06937976035570133,1.598241325483222
0.04088453590422181,0.06937976035570133,1.598241325483222
0.0408851659042218,0.06937976035570133,1.598241325483222
0.0408857959042218,0.06200829752472337,1.600253325302445
0.04088642590422181,0.05463683469373704,1.599582658696039
0.04088705590422181,0.05832256610923774,1.599917991999241
0.0408876859042218,0.06200829752469823,1.59958265869604
0.0408883159042218,0.06937976035568122,1.599582658696038
0.0408889459042218,0.06569402894021067,1.599582658696038
0.04088957590422181,0.065694028940209,1.599582658696038
0.04089020590422181,0.065694028940209,1.599247325392836
0.0408908359042218,0.065694028940209,1.599582658696037
0.0408914659042218,0.065694028940209,1.598911992089631
0.0408920959042218,0.065694028940209,1.599582658696038
0.04089272590422181,0.06569402894019893,1.599582658696036
0.04089335590422181,0.06200829752471666,1.598911992089628
0.0408939859042218,0.06200829752471666,1.598576658786427
0.0408946159042218,0.06200829752471666,1.59891199208963
0.04089524590422181,0.06200829752471331,1.599247325392834
0.04089587590422181,0.05832256610923606,1.599247325392833
0.04089650590422181,0.06200829752469655,1.598911992089632
0.0408971359042218,0.05832256610923606,1.599247325392833
0.0408977659042218,0.06200829752471331,1.599247325392834
0.04089839590422181,0.06569402894021402,1.599582658696037
0.04089902590422181,0.06937976035568792,1.598911992089631
0.0408996559042218,0.06569402894022744,1.599247325392832
0.0409002859042218,0.06200829752472672,1.599247325392834
0.0409009159042218,0.065694028940209,1.597905992180018
0.04090154590422181,0.06569402894021738,1.598241325483224
0.04090217590422181,0.06937976035570133,1.598911992089627
0.0409028059042218,0.06937976035570133,1.598241325483225
0.0409034359042218,0.06937976035570133,1.598911992089629
0.0409040659042218,0.06937976035569965,1.59891199208963
0.04090469590422181,0.06569402894018889,1.598576658786428
0.04090532590422181,0.05832256610924277,1.599247325392836
0.0409059559042218,0.06200829752470326,1.599582658696037
0.0409065859042218,0.06937976035569127,1.599582658696038
0.04090721590422181,0.065694028940209,1.599247325392834
0.04090784590422181,0.06569402894023246,1.599247325392834
0.04090847590422181,0.07306549177117354,1.599247325392832
0.0409091059042218,0.06937976035571305,1.598911992089631
0.0409097359042218,0.06569402894021235,1.599247325392834
0.04091036590422181,0.06200829752472337,1.599247325392834
0.04091099590422181,0.065694028940209,1.599247325392837
0.0409116259042218,0.065694028940209,1.599917991999239
0.0409122559042218,0.065694028940209,1.600253325302446
0.0409128859042218,0.065694028940209,1.599917991999242
0.04091351590422181,0.06569402894021738,1.599582658696038
0.04091414590422181,0.06937976035570133,1.599582658696034
0.0409147759042218,0.06937976035570133,1.59857665878643
0.0409154059042218,0.05832256610924444,1.599247325392833
0.0409160359042218,0.04357964044725837,1.599582658696038
0.04091666590422181,0.05095110327825979,1.599917991999242
0.04091729590422181,0.05832256610920589,1.599917991999239
0.0409179259042218,0.05463683469374541,1.599247325392837
0.0409185559042218,0.0509511032782447,1.599582658696038
0.04091918590422181,0.054636834693732,1.599247325392834
0.04091981590422181,0.05463683469370854,1.599247325392832
0.04092044590422181,0.04726537186276913,1.598576658786426
0.0409210759042218,0.05095110327822794,1.598576658786426
0.0409217059042218,0.05832256610922098,1.599582658696038
0.04092233590422181,0.054636834693732,1.600253325302446
0.04092296590422181,0.05463683469371692,1.59991799199924
0.0409235959042218,0.05095110327825643,1.599247325392837
0.0409242259042218,0.05095110327823967,1.598576658786428
0.0409248559042218,0.054636834693732,1.59891199208963
0.04092548590422181,0.05095110327824805,1.598911992089631
0.04092611590422181,0.054636834693732,1.599247325392828
0.0409267459042218,0.054636834693732,1.597905992180023
0.0409273759042218,0.054636834693732,1.599582658696035
0.04092800590422181,0.05463683469373033,1.598576658786426
0.04092863590422181,0.05095110327825979,1.598576658786425
0.0409292659042218,0.05832256610918075,1.598241325483224
0.0409298959042218,0.06200829752470326,1.599247325392831
0.0409305259042218,0.05463683469374206,1.599582658696038
0.04093115590422181,0.054636834693732,1.599247325392834
0.04093178590422181,0.054636834693732,1.599582658696041
0.04093241590422181,0.05463683469377558,1.600253325302442
0.0409330459042218,0.06200829752469655,1.59958265869604
0.0409336759042218,0.05463683469373536,1.599247325392834
0.04093430590422181,0.05095110327823297,1.599247325392835
0.04093493590422181,0.04726537186274735,1.599582658696038
0.0409355659042218,0.04726537186274735,1.599582658696038
0.0409361959042218,0.05095110327823129,1.599582658696038
0.0409368259042218,0.05832256610922433,1.599582658696038
0.04093745590422181,0.06200829752470828,1.599582658696038
0.04093808590422181,0.05832256610920757,1.599247325392829
0.0409387159042218,0.05463683469374709,1.598241325483226
0.0409393459042218,0.054636834693732,1.599247325392832
0.04093997590422181,0.05463683469373368,1.599247325392834
0.04094060590422181,0.05832256610922433,1.599917991999243
0.0409412359042218,0.05832256610922433,1.600253325302444
0.0409418659042218,0.05463683469374541,1.600253325302446
0.0409424959042218,0.0509511032782447,1.599917991999243
0.04094312590422181,0.054636834693732,1.599582658696038
0.04094375590422181,0.05463683469370519,1.599582658696036
0.04094438590422181,0.04726537186274735,1.598911992089632
0.0409450159042218,0.04726537186274735,1.599247325392833
0.0409456459042218,0.05095110327823799,1.59891199208963
0.04094627590422181,0.05095110327823967,1.599247325392834
0.04094690590422181,0.05095110327825476,1.599247325392835
0.0409475359042218,0.05463683469371525,1.599582658696037
0.0409481659042218,0.054636834693732,1.600253325302445
0.0409487959042218,0.05095110327823967,1.599247325392834
0.04094942590422181,0.054636834693732,1.599247325392834
0.04095005590422181,0.05463683469371525,1.599247325392833
0.0409506859042218,0.05095110327825476,1.598911992089632
0.0409513159042218,0.0546368346937253,1.598576658786427
0.04095194590422181,0.054636834693732,1.598576658786426
0.04095257590422181,0.054636834693732,1.598576658786427
0.0409532059042218,0.054636834693732,1.598911992089628
0.0409538359042218,0.054636834693732,1.599582658696036
0.0409544659042218,0.05095110327824302,1.599917991999242
0.04095509590422181,0.0509511032782447,1.599247325392834
0.04095572590422181,0.0546368346937186,1.598911992089631
0.0409563559042218,0.05095110327825811,1.599247325392832
0.0409569859042218,0.05095110327823967,1.599247325392834
0.0409576159042218,0.05095110327823967,1.599582658696038
0.04095824590422181,0.05095110327824637,1.600253325302445
0.04095887590422181,0.05463683469371692,1.599582658696042
0.0409595059042218,0.05095110327825643,1.600588658605646
0.0409601359042218,0.05095110327823967,1.600253325302447
0.0409607659042218,0.04726537186274735,1.600253325302446
0.04096139590422181,0.05095110327823967,1.599247325392835
0.04096202590422181,0.05095110327823967,1.59958265869604
0.0409626559042218,0.05095110327823967,1.599917991999241
0.0409632859042218,0.0546368346937253,1.599582658696039
0.04096391590422181,0.05095110327823967,1.598911992089631
0.04096454590422181,0.05095110327826314,1.600253325302448
0.0409651759042218,0.05832256610918411,1.600588658605649
0.0409658059042218,0.05832256610922433,1.600253325302448
0.0409664359042218,0.05463683469373536,1.599582658696039
0.04096706590422181,0.05095110327823967,1.600253325302446
0.04096769590422181,0.05095110327822627,1.599917991999241
0.0409683259042218,0.04726537186276578,1.59958265869604
0.0409689559042218,0.05095110327822962,1.598911992089632
0.0409695859042218,0.04726537186274903,1.599247325392834
0.04097021590422181,0.04726537186275405,1.599582658696038
0.04097084590422181,0.05095110327825476,1.599582658696036
0.0409714759042218,0.05463683469371525,1.598911992089633
0.0409721059042218,0.054636834693732,1.599247325392833
0.0409727359042218,0.054636834693732,1.599247325392834
0.04097336590422181,0.05095110327823129,1.599247325392833
0.04097399590422181,0.04726537186274735,1.598911992089627
0.0409746259042218,0.04726537186274735,1.598241325483225
0.0409752559042218,0.04726537186274735,1.598241325483222
0.04097588590422181,0.05095110327824302,1.598576658786426
0.04097651590422181,0.054636834693732,1.598241325483224
0.0409771459042218,0.054636834693732,1.598911992089627
0.0409777759042218,0.04726537186277081,1.59891199208963
0.0409784059042218,0.04726537186274735,1.599247325392834
0.04097903590422181,0.05095110327824973,1.599247325392835
0.04097966590422181,0.05832256610922433,1.599582658696037
0.0409802959042218,0.05832256610922433,1.599247325392836
0.0409809259042218,0.05832256610922433,1.599247325392834
0.0409815559042218,0.05095110327824302,1.59891199208963
0.04098218590422181,0.04726537186274735,1.599582658696037
0.04098281590422181,0.04726537186276243,1.59891199208963
0.0409834459042218,0.05095110327822291,1.59891199208963
0.0409840759042218,0.05095110327823967,1.598241325483224
0.0409847059042218,0.054636834693732,1.598576658786426
0.04098533590422181,0.05095110327824973,1.599582658696036
0.04098596590422181,0.054636834693732,1.59891199208963
0.0409865959042218,0.054636834693732,1.59891199208963
0.0409872259042218,0.054636834693732,1.59891199208963
0.04098785590422181,0.04357964044725837,1.59891199208963
0.04098848590422181,0.04726537186275908,1.599247325392836
0.0409891159042218,0.05095110327821956,1.599917991999239
0.0409897459042218,0.05095110327823967,1.599247325392836
0.0409903759042218,0.04357964044726172,1.599247325392834
0.04099100590422181,0.04357964044726507,1.599247325392834
0.04099163590422181,0.05095110327823967,1.599247325392837
0.0409922659042218,0.05095110327823967,1.599917991999239
0.0409928959042218,0.05463683469372195,1.599582658696039
0.0409935259042218,0.054636834693732,1.599247325392834
0.04099415590422181,0.05095110327823297,1.599247325392834
0.04099478590422181,0.04726537186276243,1.599247325392835
0.0409954159042218,0.05095110327822291,1.599582658696037
0.0409960459042218,0.05095110327823967,1.599917991999242
0.0409966759042218,0.05463683469373033,1.599917991999242
0.04099730590422181,0.05095110327822962,1.599917991999241
0.04099793590422181,0.04726537186274735,1.599247325392837
0.0409985659042218,0.04726537186274735,1.59991799199924
0.0409991959042218,0.05095110327823464,1.599582658696039
0.04099982590422181,0.04726537186274399,1.599582658696038
0.04100045590422181,0.04357964044726675,1.599917991999241
0.0410010859042218,0.04726537186272723,1.59958265869604
0.0410017159042218,0.04726537186274735,1.599247325392835
0.0410023459042218,0.04726537186274735,1.599247325392834
0.04100297590422181,0.04357964044726004,1.599582658696038
0.04100360590422181,0.04726537186276075,1.599582658696041
0.0410042359042218,0.05095110327822124,1.600253325302443
0.0410048659042218,0.05095110327823967,1.60058865860565
0.0410054959042218,0.04357964044725837,1.599582658696039
0.04100612590422181,0.04726537186274735,1.599247325392834
0.04100675590422181,0.04726537186274735,1.599247325392834
0.0410073859042218,0.04726537186274735,1.599247325392834
0.0410080159042218,0.04726537186274735,1.599582658696038
0.0410086459042218,0.04726537186274735,1.599582658696038
0.04100927590422181,0.04726537186274735,1.599247325392833
0.04100990590422181,0.04726537186272891,1.598911992089634
0.0410105359042218,0.04357964044726842,1.599582658696036
0.0410111659042218,0.04726537186274232,1.599582658696038
0.04101179590422181,0.04357964044725837,1.599247325392834
0.04101242590422181,0.04726537186273561,1.599247325392833
0.0410130559042218,0.04357964044727513,1.598911992089632
0.0410136859042218,0.03989390903177441,1.599247325392833
0.0410143159042218,0.03989390903176268,1.599582658696038
0.04101494590422181,0.04726537186274735,1.599247325392834
0.04101557590422181,0.04726537186273394,1.598911992089629
0.0410162059042218,0.04357964044727345,1.598576658786428
0.0410168359042218,0.04726537186273729,1.599582658696036
0.0410174659042218,0.05095110327823967,1.599582658696038
0.04101809590422181,0.04726537186274735,1.59891199208963
0.04101872590422181,0.04726537186273059,1.598911992089635
0.0410193559042218,0.0435796404472701,1.599917991999238
0.0410199859042218,0.05095110327822627,1.599247325392835
0.0410206159042218,0.05463683469373033,1.599582658696038
0.04102124590422181,0.05095110327822962,1.599917991999241
0.04102187590422181,0.04726537186272891,1.599582658696036
0.0410225059042218,0.04357964044726842,1.599247325392835
0.0410231359042218,0.04726537186274232,1.599582658696038
0.04102376590422181,0.04357964044725501,1.598911992089631
0.04102439590422181,0.04357964044725501,1.599582658696037
0.0410250259042218,0.04357964044725501,1.599247325392836
0.0410256559042218,0.04357964044725501,1.600253325302443
0.0410262859042218,0.04357964044725501,1.599582658696039
0.04102691590422181,0.04726537186275238,1.599582658696038
0.04102754590422181,0.05095110327823967,1.599582658696033
0.0410281759042218,0.05095110327823967,1.598241325483229
0.0410288059042218,0.04726537186275573,1.598576658786425
0.0410294359042218,0.03989390903176268,1.59891199208963
0.04103006590422181,0.04726537186274735,1.599582658696038
0.04103069590422181,0.04726537186273059,1.599247325392836
0.0410313259042218,0.0435796404472701,1.599582658696037
