data/lab5.2.csv

#Digilent WaveForms Oscilloscope Acquisition
#Device Name: Discovery2
#Serial Number: SN:210321B0FB35
#Date Time: 2023-10-04 22:15:25.487
#Sample rate: 1.5873e+06Hz
#Samples: 8192
#Trigger: Source: Channel 1 Type: Edge Condition: Rising Level: 3.84767 V Hyst.: Auto HoldOff: 100 ns
#Channel 1: Range: 5 V/div Offset: 0 V Attenuation: 1 X Sample Mode: Average
#Channel 2: Range: 5 V/div Offset: 0 V Attenuation: 1 X Sample Mode: Average
#Math 1: Function: C1/1000

#Wavegen Channel 1: Enabled
#Mode: Simple
#Type: DC
#Offset: 100 mV
#Wavegen Channel 2: Enabled
#Mode: Simple
#Type: Triangle
#Frequency: 1 kHz
#Period: 1 ms
#Amplitude: 1.5 V
#Offset: 1.5 V
#Symmetry: 50 %
#Phase: 0 бу

Time (s),Channel 1 (V),Channel 2 (V),Math 1 (A)
-0.003180810302674749,-0.004334867954145278,1.074107292205047,-4.334867954145277e-06
-0.00318018030267475,-0.0006491365386546238,1.077784561204524,-6.49136538654624e-07
-0.00317955030267475,-0.0006491365386529476,1.081461830204005,-6.491365386529476e-07
-0.003178920302674749,-0.0006491365386546236,1.088816368202965,-6.491365386546236e-07
-0.00317829030267475,-0.004334867954145278,1.092493637202442,-4.334867954145277e-06
-0.00317766030267475,-0.004334867954145278,1.092493637202442,-4.334867954145277e-06
-0.00317703030267475,0.00303659487683603,1.092493637202442,3.036594876836029e-06
-0.00317640030267475,0.003036594876839382,1.096170906201921,3.036594876839382e-06
-0.003175770302674749,0.003036594876839382,1.103525444200879,3.036594876839382e-06
-0.00317514030267475,-0.004334867954141925,1.099848175201402,-4.334867954141925e-06
-0.00317451030267475,-0.0006491365386529476,1.0998481752014,-6.491365386529476e-07
-0.003173880302674749,0.003036594876837706,1.11087998219984,3.036594876837706e-06
-0.00317325030267475,-0.0006491365386529476,1.118234520198794,-6.491365386529476e-07
-0.00317262030267475,-0.0006491365386529476,1.125589058197752,-6.491365386529476e-07
-0.003171990302674749,0.003036594876837706,1.125589058197754,3.036594876837706e-06
-0.00317136030267475,-0.0006491365386529476,1.129266327197231,-6.491365386529476e-07
-0.003170730302674749,-0.01170633078512994,1.129266327197231,-1.170633078512994e-05
-0.00317010030267475,-0.00433486795414863,1.136620865196186,-4.33486795414863e-06
-0.00316947030267475,0.006722326292331712,1.140298134195668,6.722326292331713e-06
-0.003168840302674749,0.00303659487683603,1.14029813419567,3.03659487683603e-06
-0.00316821030267475,-0.004334867954145278,1.143975403195147,-4.334867954145277e-06
-0.00316758030267475,-0.008020599369637609,1.143975403195147,-8.020599369637609e-06
-0.003166950302674749,-0.0006491365386546236,1.151329941194108,-6.491365386546236e-07
-0.00316632030267475,-0.004334867954145278,1.158684479193063,-4.334867954145277e-06
-0.003165690302674749,-0.0006491365386529476,1.162361748192541,-6.491365386529476e-07
-0.00316506030267475,0.003036594876837706,1.166039017192019,3.036594876837706e-06
-0.00316443030267475,0.003036594876839382,1.166039017192021,3.036594876839382e-06
-0.003163800302674749,0.003036594876839382,1.177070824190457,3.036594876839382e-06
-0.00316317030267475,0.003036594876839382,1.177070824190457,3.036594876839382e-06
-0.00316254030267475,0.003036594876839382,1.180748093189936,3.036594876839382e-06
-0.003161910302674749,0.00303659487683603,1.184425362189419,3.03659487683603e-06
-0.00316128030267475,-0.004334867954145278,1.191779900188373,-4.334867954145277e-06
-0.00316065030267475,-0.0006491365386529476,1.191779900188373,-6.491365386529476e-07
-0.00316002030267475,-0.0006491365386529476,1.19545716918785,-6.491365386529476e-07
-0.00315939030267475,-0.0006491365386529476,1.199134438187331,-6.491365386529476e-07
-0.003158760302674749,-0.0006491365386529476,1.20281170718681,-6.491365386529476e-07
-0.00315813030267475,-0.0006491365386529476,1.210166245185768,-6.491365386529476e-07
-0.00315750030267475,0.003036594876839382,1.213843514185247,3.036594876839382e-06
-0.003156870302674749,-0.0006491365386529476,1.217520783184728,-6.491365386529476e-07
-0.00315624030267475,-0.0006491365386529476,1.221198052184205,-6.491365386529476e-07
-0.00315561030267475,-0.004334867954145278,1.232229859182641,-4.334867954145277e-06
-0.00315498030267475,0.006722326292326684,1.232229859182641,6.722326292326684e-06
-0.00315435030267475,-0.0006491365386529476,1.235907128182121,-6.491365386529476e-07
-0.003153720302674749,-0.008020599369637609,1.232229859182641,-8.020599369637609e-06
-0.00315309030267475,0.003036594876839382,1.239584397181599,3.036594876839382e-06
-0.00315246030267475,0.01040805770782404,1.239584397181599,1.040805770782404e-05
-0.003151830302674749,0.006722326292326684,1.246938935180557,6.722326292326685e-06
-0.00315120030267475,-0.004334867954145278,1.246938935180557,-4.334867954145277e-06
-0.00315057030267475,-0.0006491365386529476,1.257970742178994,-6.491365386529476e-07
-0.00314994030267475,-0.004334867954143602,1.261648011178471,-4.334867954143601e-06
-0.00314931030267475,-0.0006491365386529476,1.261648011178473,-6.491365386529476e-07
-0.003148680302674749,-0.0006491365386529476,1.265325280177952,-6.491365386529476e-07
-0.00314805030267475,-0.004334867954143602,1.272679818176907,-4.334867954143601e-06
-0.00314742030267475,-0.0006491365386529476,1.276357087176389,-6.491365386529476e-07
-0.003146790302674749,-0.004334867954143602,1.280034356175868,-4.334867954143601e-06
-0.00314616030267475,-0.0006491365386529476,1.280034356175868,-6.491365386529476e-07
-0.00314553030267475,0.003036594876839382,1.287388894174826,3.036594876839382e-06
-0.00314490030267475,-0.0006491365386512714,1.291066163174303,-6.491365386512714e-07
-0.00314427030267475,-0.004334867954145278,1.294743432173783,-4.334867954145277e-06
-0.003143640302674749,0.003036594876839382,1.294743432173783,3.036594876839382e-06
-0.00314301030267475,0.003036594876839382,1.294743432173783,3.036594876839382e-06
-0.00314238030267475,-0.004334867954145278,1.302097970172741,-4.334867954145277e-06
-0.003141750302674749,-0.004334867954145278,1.302097970172743,-4.334867954145277e-06
-0.00314112030267475,-0.004334867954145278,1.30577523917222,-4.334867954145277e-06
-0.00314049030267475,-0.004334867954145278,1.313129777171178,-4.334867954145277e-06
-0.00313986030267475,0.00303659487683603,1.32416158416961,3.036594876836029e-06
-0.00313923030267475,0.006722326292331712,1.327838853169094,6.722326292331713e-06
-0.003138600302674749,0.003036594876839382,1.331516122168573,3.036594876839382e-06
-0.00313797030267475,0.006722326292330036,1.331516122168573,6.722326292330036e-06
-0.00313734030267475,-0.004334867954145278,1.335193391168052,-4.334867954145277e-06
-0.003136710302674749,-0.004334867954141925,1.338870660167533,-4.334867954141925e-06
-0.00313608030267475,0.003036594876839382,1.34254792916701,3.036594876839382e-06
-0.00313545030267475,0.006722326292331712,1.346225198166489,6.722326292331713e-06
-0.003134820302674749,-0.0006491365386562997,1.349902467165967,-6.491365386562997e-07
-0.00313419030267475,-0.008020599369637609,1.349902467165967,-8.020599369637609e-06
-0.003133560302674749,0.003036594876839382,1.353579736165446,3.036594876839382e-06
-0.00313293030267475,0.003036594876839382,1.364611543163878,3.036594876839382e-06
-0.00313230030267475,-0.0006491365386529476,1.371966081162841,-6.491365386529476e-07
-0.003131670302674749,-0.0006491365386546236,1.368288812163365,-6.491365386546236e-07
-0.00313104030267475,-0.004334867954145278,1.37564335016232,-4.334867954145277e-06
-0.00313041030267475,-0.0006491365386529476,1.37564335016232,-6.491365386529476e-07
-0.003129780302674749,0.003036594876841059,1.386675157160753,3.036594876841059e-06
-0.00312915030267475,0.006722326292331712,1.379320619161799,6.722326292331713e-06
-0.003128520302674749,0.006722326292331712,1.382997888161278,6.722326292331713e-06
-0.00312789030267475,-0.00433486795414025,1.386675157160755,-4.334867954140249e-06
-0.00312726030267475,-0.004334867954145278,1.390352426160236,-4.334867954145277e-06
-0.003126630302674749,-0.004334867954145278,1.397706964159194,-4.334867954145277e-06
-0.00312600030267475,-0.0006491365386529476,1.405061502158151,-6.491365386529476e-07
-0.00312537030267475,0.003036594876839382,1.408738771157631,3.036594876839382e-06
-0.003124740302674749,0.003036594876839382,1.405061502158151,3.036594876839382e-06
-0.00312411030267475,0.003036594876839382,1.405061502158151,3.036594876839382e-06
-0.00312348030267475,-0.0006491365386529476,1.41241604015711,-6.491365386529476e-07
-0.00312285030267475,0.003036594876837706,1.419770578156064,3.036594876837706e-06
-0.00312222030267475,0.01040805770782404,1.423447847155546,1.040805770782404e-05
-0.003121590302674749,0.01040805770782404,1.430802385154504,1.040805770782404e-05
-0.00312096030267475,-0.004334867954145278,1.427125116155025,-4.334867954145277e-06
-0.00312033030267475,-0.008020599369637609,1.430802385154504,-8.020599369637609e-06
-0.003119700302674749,-0.00433486795414025,1.434479654153988,-4.334867954140249e-06
-0.00311907030267475,0.006722326292331712,1.44551146115242,6.722326292331713e-06
-0.00311844030267475,0.003036594876839382,1.449188730151899,3.036594876839382e-06
-0.00311781030267475,-0.0006491365386512714,1.449188730151899,-6.491365386512714e-07
-0.00311718030267475,-0.0006491365386529476,1.456543268150857,-6.491365386529476e-07
-0.003116550302674749,0.003036594876839382,1.456543268150857,3.036594876839382e-06
-0.00311592030267475,0.006722326292330036,1.460220537150334,6.722326292330036e-06
-0.00311529030267475,0.003036594876839382,1.460220537150335,3.036594876839382e-06
-0.003114660302674749,-0.004334867954143602,1.467575075149294,-4.334867954143601e-06
-0.00311403030267475,-0.0006491365386529476,1.467575075149294,-6.491365386529476e-07
-0.00311340030267475,-0.004334867954145278,1.474929613148251,-4.334867954145277e-06
-0.00311277030267475,-0.0006491365386546238,1.478606882147729,-6.49136538654624e-07
-0.00311214030267475,0.003036594876839382,1.489638689146167,3.036594876839382e-06
-0.003111510302674749,-0.0006491365386529476,1.493315958145646,-6.491365386529476e-07
-0.00311088030267475,-0.0006491365386529476,1.493315958145646,-6.491365386529476e-07
-0.00311025030267475,0.003036594876839382,1.500670496144604,3.036594876839382e-06
-0.003109620302674749,0.006722326292331712,1.500670496144606,6.722326292331713e-06
-0.00310899030267475,0.006722326292331712,1.504347765144083,6.722326292331713e-06
-0.00310836030267475,0.003036594876839382,1.504347765144083,3.036594876839382e-06
-0.00310773030267475,0.003036594876839382,1.511702303143037,3.036594876839382e-06
-0.00310710030267475,0.006722326292331712,1.51537957214252,6.722326292331713e-06
-0.003106470302674749,-0.0006491365386529476,1.519056841141999,-6.491365386529476e-07
-0.00310584030267475,0.01040805770781901,1.522734110141476,1.040805770781902e-05
-0.00310521030267475,0.01040805770782404,1.522734110141478,1.040805770782404e-05
-0.003104580302674749,0.01409378912330632,1.522734110141481,1.409378912330632e-05
-0.00310395030267475,-0.008020599369637609,1.530088648140436,-8.020599369637609e-06
-0.00310332030267475,-0.01170633078512994,1.537443186139393,-1.170633078512994e-05
-0.003102690302674749,-0.0006491365386495954,1.541120455138876,-6.491365386495954e-07
-0.00310206030267475,0.006722326292331712,1.54847499313783,6.722326292331713e-06
-0.003101430302674749,0.006722326292331712,1.555829531136788,6.722326292331713e-06
-0.00310080030267475,-0.0006491365386495952,1.555829531136788,-6.491365386495951e-07
-0.00310017030267475,0.003036594876839382,1.555829531136788,3.036594876839382e-06
-0.003099540302674749,0.003036594876841059,1.563184069135749,3.036594876841059e-06
-0.00309891030267475,0.006722326292331712,1.570538607134704,6.722326292331713e-06
-0.00309828030267475,0.006722326292331712,1.574215876134183,6.722326292331713e-06
-0.003097650302674749,0.006722326292331712,1.574215876134181,6.722326292331713e-06
-0.00309702030267475,0.006722326292331712,1.570538607134704,6.722326292331713e-06
-0.003096390302674749,0.006722326292331712,1.574215876134183,6.722326292331713e-06
-0.00309576030267475,0.003036594876841059,1.57789314513366,3.036594876841059e-06
-0.00309513030267475,0.006722326292331712,1.58157041413314,6.722326292331713e-06
-0.003094500302674749,0.006722326292333388,1.585247683132623,6.722326292333389e-06
-0.00309387030267475,0.01040805770782404,1.592602221131577,1.040805770782404e-05
-0.00309324030267475,0.01040805770782404,1.599956759130535,1.040805770782404e-05
-0.003092610302674749,0.01040805770782237,1.599956759130537,1.040805770782237e-05
-0.00309198030267475,0.006722326292331712,1.603634028130014,6.722326292331713e-06
-0.00309135030267475,0.006722326292331712,1.603634028130014,6.722326292331713e-06
-0.00309072030267475,0.006722326292331712,1.607311297129491,6.722326292331713e-06
-0.00309009030267475,0.006722326292331712,1.614665835128451,6.722326292331713e-06
-0.003089460302674749,0.01040805770782404,1.61834310412793,1.040805770782404e-05
-0.00308883030267475,0.006722326292331712,1.622020373127409,6.722326292331713e-06
-0.00308820030267475,0.01409378912331637,1.629374911126367,1.409378912331637e-05
-0.003087570302674749,0.01409378912331302,1.633052180125846,1.409378912331302e-05
-0.00308694030267475,0.006722326292331712,1.633052180125846,6.722326292331713e-06
-0.00308631030267475,0.003036594876839382,1.640406718124804,3.036594876839382e-06
-0.00308568030267475,0.01040805770782069,1.644083987124281,1.040805770782069e-05
-0.00308505030267475,0.0177795205388087,1.644083987124282,1.77795205388087e-05
-0.003084420302674749,0.01409378912331637,1.65143852512324,1.409378912331637e-05
-0.00308379030267475,0.01040805770782404,1.65143852512324,1.040805770782404e-05
-0.00308316030267475,0.01040805770782404,1.655115794122719,1.040805770782404e-05
-0.003082530302674749,0.01409378912331972,1.662470332121679,1.409378912331973e-05
-0.00308190030267475,0.02146525195430103,1.666147601121156,2.146525195430103e-05
-0.00308127030267475,0.01409378912331637,1.673502139120114,1.409378912331637e-05
-0.00308064030267475,0.01409378912331637,1.673502139120114,1.409378912331637e-05
-0.00308001030267475,0.0177795205388087,1.673502139120114,1.77795205388087e-05
-0.003079380302674749,0.01409378912331637,1.684533946118551,1.409378912331637e-05
-0.00307875030267475,0.02146525195429768,1.688211215118028,2.146525195429768e-05
-0.00307812030267475,0.02515098336979336,1.684533946118551,2.515098336979337e-05
-0.003077490302674749,0.02146525195429768,1.688211215118032,2.146525195429768e-05
-0.00307686030267475,0.01409378912331637,1.691888484117509,1.409378912331637e-05
-0.00307623030267475,0.0177795205388087,1.699243022116466,1.77795205388087e-05
-0.00307560030267475,0.02515098336979001,1.702920291115944,2.515098336979001e-05
-0.00307497030267475,0.03252244620077802,1.706597560115425,3.252244620077802e-05
-0.003074340302674749,0.03252244620077802,1.710274829114903,3.252244620077802e-05
-0.00307371030267475,0.03620817761626868,1.713952098114381,3.620817761626868e-05
-0.00307308030267475,0.03252244620077802,1.717629367113861,3.252244620077802e-05
-0.003072450302674749,0.02883671478528737,1.717629367113864,2.883671478528737e-05
-0.00307182030267475,0.03252244620077802,1.724983905112819,3.252244620077802e-05
-0.00307119030267475,0.05095110327823967,1.732338443111777,5.095110327823967e-05
-0.00307056030267475,0.03989390903176771,1.7286611741123,3.989390903176771e-05
-0.00306993030267475,0.02883671478528569,1.736015712111256,2.88367147852857e-05
-0.003069300302674749,0.03252244620077802,1.743370250110214,3.252244620077802e-05
-0.00306867030267475,0.05463683469372195,1.739692981110737,5.463683469372195e-05
-0.00306804030267475,0.054636834693732,1.747047519109693,5.4636834693732e-05
-0.003067410302674749,0.05463683469373033,1.750724788109173,5.463683469373033e-05
-0.00306678030267475,0.05095110327823967,1.75440205710865,5.095110327823967e-05
-0.00306615030267475,0.05095110327823967,1.75807932610813,5.095110327823967e-05
-0.003065520302674749,0.05832256610922601,1.761756595107612,5.832256610922601e-05
-0.00306489030267475,0.06200829752471666,1.769111133106566,6.200829752471666e-05
-0.003064260302674749,0.06200829752471666,1.772788402106045,6.200829752471666e-05
-0.00306363030267475,0.06200829752471666,1.772788402106045,6.200829752471666e-05
-0.00306300030267475,0.065694028940209,1.776465671105524,6.569402894020899e-05
-0.003062370302674749,0.0656940289402157,1.780142940105005,6.56940289402157e-05
-0.00306174030267475,0.08043695460217831,1.783820209104482,8.043695460217831e-05
-0.00306111030267475,0.08043695460217831,1.787497478103961,8.043695460217831e-05
-0.003060480302674749,0.07306549177119365,1.794852016102919,7.306549177119365e-05
-0.00305985030267475,0.07306549177119365,1.794852016102919,7.306549177119365e-05
-0.003059220302674749,0.08412268601767064,1.802206554101877,8.412268601767064e-05
-0.00305859030267475,0.0878084174331613,1.805883823101354,8.78084174331613e-05
-0.00305796030267475,0.09517988026414763,1.805883823101356,9.517988026414763e-05
-0.003057330302674749,0.09886561167963996,1.809561092100835,9.886561167963996e-05
-0.00305670030267475,0.1025513430951323,1.816915630099793,0.0001025513430951323
-0.00305607030267475,0.1062370745106246,1.820592899099271,0.0001062370745106246
-0.003055440302674749,0.1062370745106313,1.824270168098752,0.0001062370745106313
-0.00305481030267475,0.1209800001725939,1.82794743709823,0.0001209800001725939
-0.00305418030267475,0.1578373143275172,1.82794743709823,0.0001578373143275172
-0.00305355030267475,0.139408657250064,1.831624706097707,0.000139408657250064
-0.00305292030267475,0.1172942687571016,1.835301975097187,0.0001172942687571016
-0.003052290302674749,0.1209800001725939,1.838979244096666,0.0001209800001725939
-0.00305166030267475,0.1504658514965326,1.842656513096145,0.0001504658514965326
-0.00305103030267475,0.1652087771585019,1.850011051095103,0.0001652087771585019
-0.003050400302674749,0.1615230457430079,1.853688320094585,0.0001615230457430079
-0.00304977030267475,0.1578373143275172,1.86104285809354,0.0001578373143275172
-0.00304914030267475,0.1688945085739942,1.868397396092498,0.0001688945085739943
-0.00304851030267475,0.1799517028204662,1.868397396092498,0.0001799517028204662
-0.00304788030267475,0.1910088970669482,1.868397396092498,0.0001910088970669482
-0.003047250302674749,0.2020660913134252,1.875751934091455,0.0002020660913134252
-0.00304662030267475,0.2131232855598972,1.879429203090933,0.0002131232855598972
-0.00304599030267475,0.2315519426373638,1.890461010089371,0.0002315519426373638
-0.003045360302674749,0.2462948682993416,1.894138279088848,0.0002462948682993416
-0.00304473030267475,0.2647235253767948,1.890461010089371,0.0002647235253767948
-0.00304410030267475,0.2573520625458102,1.89413827908885,0.0002573520625458102
-0.00304347030267475,0.2610377939613008,1.901492817087805,0.0002610377939613008
-0.00304284030267475,0.2794664510387641,1.901492817087808,0.0002794664510387641
-0.003042210302674749,0.3015808395317181,1.901492817087808,0.0003015808395317181
-0.00304158030267475,0.3163237651936807,1.901492817087808,0.0003163237651936807
-0.00304095030267475,0.3273809594401644,1.912524624086245,0.0003273809594401644
-0.003040320302674749,0.3384381536866498,1.912524624086247,0.0003384381536866498
-0.00303969030267475,0.3568668107641031,1.916201893085724,0.0003568668107641031
-0.00303906030267475,0.3716097364260724,1.919879162085203,0.0003716097364260724
-0.00303843030267475,0.3826669306725443,1.930910969083634,0.0003826669306725443
-0.00303780030267475,0.4416386333204266,1.930910969083639,0.0004416386333204266
-0.003037170302674749,0.4711244846443653,1.934588238083119,0.0004711244846443653
-0.00303654030267475,0.4379529019049494,1.941942776082073,0.0004379529019049493
-0.00303591030267475,0.434267170489442,1.945620045081555,0.000434267170489442
-0.003035280302674749,0.4674387532288864,1.945620045081559,0.0004674387532288864
-0.00303465030267475,0.4969246045528116,1.952974583080513,0.0004969246045528116
-0.00303402030267475,0.5264104558767503,1.952974583080513,0.0005264104558767502
